%YAML 1.1
%TAG !u! tag:unity3d.com,2011:
--- !u!78 &1
TagManager:
  serializedVersion: 2
  tags:
  - Enemy
  - Tank
  - Bullet
  - Door_North
  - Door_East
  - PlayerSpawn
  - EnemySpawn
  - PowerupSpawn
  - Waypoints
  - Player1
  - Player2
  - Player2Camera
  - PlayerCamera
  - Player1Score
  - Player1Lives
  - Player2Score
  - Player2Lives
  layers:
  - Default
  - TransparentFX
  - Ignore Raycast
  - 
  - Water
  - UI
  - 
  - 
  - 
  - 
  - 
  - 
  - 
  - 
  - 
  - 
  - 
  - 
  - 
  - 
  - 
  - 
  - 
  - 
  - 
  - 
  - 
  - 
  - 
  - 
  - 
  - 
  m_SortingLayers:
  - name: Default
    uniqueID: 0
    locked: 0
